<svg xmlns="http://www.w3.org/2000/svg" viewBox="1030 2383 111 111">
  <defs>
    <style>
      .cls-1 {
        fill: #a01f60;
        stroke: #fff;
        stroke-width: 2px;
      }

      .cls-2 {
        fill: #e74996;
      }

      .cls-3 {
        stroke: none;
      }

      .cls-4 {
        fill: none;
      }
    </style>
  </defs>
  <g id="map" transform="translate(885 5)">
    <g id="Ellipse_1" data-name="Ellipse 1" class="cls-1" transform="translate(145 2378)">
      <circle class="cls-3" cx="55.5" cy="55.5" r="55.5"/>
      <circle class="cls-4" cx="55.5" cy="55.5" r="54.5"/>
    </g>
    <path id="placeholder" class="cls-2" d="M45.152,33.853H38.713l2.74-3.956c5.175-6.9,4.426-18.235-1.6-24.261a17.242,17.242,0,0,0-24.385,0C9.439,11.662,8.69,23,13.844,29.87L16.6,33.854H9.848L0,54.534H55ZM27.818,11.374a6.294,6.294,0,1,1-6.294,6.294A6.3,6.3,0,0,1,27.818,11.374ZM10.984,35.651h6.864L27.659,49.82l9.81-14.168h6.547l8.136,17.084H2.849Z" transform="translate(173 2406.415)"/>
  </g>
</svg>
