<svg xmlns="http://www.w3.org/2000/svg" viewBox="621 2383 111 111">
  <defs>
    <style>
      .cls-1 {
        fill: #a01f60;
        stroke: #fff;
        stroke-width: 2px;
      }

      .cls-2 {
        fill: #e74996;
      }

      .cls-3 {
        stroke: none;
      }

      .cls-4 {
        fill: none;
      }
    </style>
  </defs>
  <g id="opened-email-envelope" transform="translate(649 2410.69)">
    <g id="Ellipse_1" data-name="Ellipse 1" class="cls-1" transform="translate(-28 -27.69)">
      <circle class="cls-3" cx="55.5" cy="55.5" r="55.5"/>
      <circle class="cls-4" cx="55.5" cy="55.5" r="54.5"/>
    </g>
    <path id="Path_20" data-name="Path 20" class="cls-2" d="M27.5,1.31,0,21.844V54.5H55V21.844ZM19.895,15.962a7.951,7.951,0,0,1,3.33-3.323,10.172,10.172,0,0,1,4.829-1.117,9.112,9.112,0,0,1,4.094.893,6.4,6.4,0,0,1,2.743,2.55,7.227,7.227,0,0,1,.945,3.608,6.777,6.777,0,0,1-1.44,4.216,5.553,5.553,0,0,1-4.619,2.376,2.015,2.015,0,0,1-1.144-.263,1.309,1.309,0,0,1-.514-.781,3.431,3.431,0,0,1-2.482,1.051,3.352,3.352,0,0,1-2.519-1.043,3.874,3.874,0,0,1-1-2.787,6.786,6.786,0,0,1,1.205-3.922,4.388,4.388,0,0,1,3.751-2.164,2.624,2.624,0,0,1,2.4,1.248l.229-1.015h2.42l-1.382,6.555a5.33,5.33,0,0,0-.129.8.507.507,0,0,0,.1.344.324.324,0,0,0,.247.114,2.021,2.021,0,0,0,1.138-.532,5.035,5.035,0,0,0,1.508-1.864,5.452,5.452,0,0,0,.58-2.426,4.944,4.944,0,0,0-1.626-3.765,6.467,6.467,0,0,0-4.549-1.511,8.123,8.123,0,0,0-4.2,1.015,6.438,6.438,0,0,0-2.6,2.845,8.782,8.782,0,0,0-.87,3.817,6.6,6.6,0,0,0,.976,3.509,5.679,5.679,0,0,0,2.736,2.313,10.541,10.541,0,0,0,4.03.723,10.427,10.427,0,0,0,3.756-.609,5.76,5.76,0,0,0,2.535-1.826h1.941a6.653,6.653,0,0,1-2.8,2.915,10.736,10.736,0,0,1-5.286,1.2A12.3,12.3,0,0,1,23.013,28.1a6.905,6.905,0,0,1-3.271-3.008,9.028,9.028,0,0,1-1.061-4.334A9.817,9.817,0,0,1,19.895,15.962ZM1.939,22.492,22.231,36.1,1.939,51.806ZM3.48,52.851,27.5,34.26,51.519,52.851Zm49.579-1.045L32.771,36.1,53.06,22.492V51.806ZM28.494,17.457a2.331,2.331,0,0,1,.483,1.585,6.372,6.372,0,0,1-.355,1.991,4.68,4.68,0,0,1-.836,1.633,2.343,2.343,0,0,1-.686.571,1.937,1.937,0,0,1-.975.256,1.472,1.472,0,0,1-1.169-.549,2.59,2.59,0,0,1-.465-1.7,6.971,6.971,0,0,1,.337-2,3.778,3.778,0,0,1,1-1.735,2.121,2.121,0,0,1,1.452-.609A1.535,1.535,0,0,1,28.494,17.457Z" transform="translate(0 -1)"/>
  </g>
</svg>
